<?xml version="1.0"?>
<font>
<info face="49" size="16" bold="0" italic="0" charset="" unicode="0" stretchH="100" smooth="1" aa="1" padding="0,0,0,0" spacing="1,1"/>
<common lineHeight="19" base="26" scaleW="128" scaleH="128" pages="1" packed="0"/>
<pages>
<page id="0" file="font49.png"/>
</pages>
<chars count="95">
<char id="32" x="0" y="0" width="0" height="0" xoffset="0" yoffset="15" xadvance="6" page="0" chnl="0"/>
<char id="124" x="0" y="0" width="3" height="18" xoffset="2" yoffset="2" xadvance="6" page="0" chnl="0" />
<char id="106" x="3" y="0" width="5" height="18" xoffset="-1" yoffset="2" xadvance="5" page="0" chnl="0" />
<char id="125" x="8" y="0" width="8" height="17" xoffset="2" yoffset="2" xadvance="11" page="0" chnl="0" />
<char id="123" x="16" y="0" width="8" height="17" xoffset="2" yoffset="2" xadvance="11" page="0" chnl="0" />
<char id="93" x="24" y="0" width="5" height="17" xoffset="1" yoffset="2" xadvance="7" page="0" chnl="0" />
<char id="91" x="29" y="0" width="5" height="17" xoffset="1" yoffset="2" xadvance="7" page="0" chnl="0" />
<char id="74" x="34" y="0" width="6" height="17" xoffset="-1" yoffset="3" xadvance="5" page="0" chnl="0" />
<char id="41" x="40" y="0" width="5" height="17" xoffset="1" yoffset="2" xadvance="7" page="0" chnl="0" />
<char id="40" x="45" y="0" width="5" height="17" xoffset="1" yoffset="2" xadvance="7" page="0" chnl="0" />
<char id="36" x="50" y="0" width="9" height="17" xoffset="1" yoffset="2" xadvance="11" page="0" chnl="0" />
<char id="127" x="59" y="0" width="10" height="16" xoffset="0" yoffset="3" xadvance="10" page="0" chnl="0" />
<char id="81" x="69" y="0" width="13" height="16" xoffset="0" yoffset="3" xadvance="13" page="0" chnl="0" />
<char id="64" x="82" y="0" width="15" height="16" xoffset="1" yoffset="3" xadvance="17" page="0" chnl="0" />
<char id="100" x="97" y="0" width="10" height="15" xoffset="0" yoffset="2" xadvance="11" page="0" chnl="0" />
<char id="98" x="107" y="0" width="10" height="15" xoffset="1" yoffset="2" xadvance="11" page="0" chnl="0" />
<char id="92" x="117" y="0" width="7" height="15" xoffset="0" yoffset="3" xadvance="6" page="0" chnl="0" />
<char id="47" x="0" y="18" width="7" height="15" xoffset="0" yoffset="3" xadvance="6" page="0" chnl="0" />
<char id="121" x="7" y="18" width="10" height="14" xoffset="0" yoffset="6" xadvance="10" page="0" chnl="0" />
<char id="113" x="17" y="18" width="10" height="14" xoffset="0" yoffset="6" xadvance="11" page="0" chnl="0" />
<char id="112" x="27" y="18" width="10" height="14" xoffset="1" yoffset="6" xadvance="11" page="0" chnl="0" />
<char id="108" x="37" y="18" width="3" height="14" xoffset="1" yoffset="2" xadvance="5" page="0" chnl="0" />
<char id="107" x="40" y="18" width="10" height="14" xoffset="1" yoffset="2" xadvance="10" page="0" chnl="0" />
<char id="105" x="50" y="18" width="3" height="14" xoffset="1" yoffset="2" xadvance="5" page="0" chnl="0" />
<char id="104" x="53" y="18" width="9" height="14" xoffset="1" yoffset="2" xadvance="11" page="0" chnl="0" />
<char id="103" x="62" y="18" width="10" height="14" xoffset="0" yoffset="6" xadvance="11" page="0" chnl="0" />
<char id="102" x="72" y="18" width="7" height="14" xoffset="0" yoffset="2" xadvance="6" page="0" chnl="0" />
<char id="85" x="79" y="18" width="11" height="14" xoffset="1" yoffset="3" xadvance="12" page="0" chnl="0" />
<char id="83" x="90" y="18" width="10" height="14" xoffset="1" yoffset="3" xadvance="11" page="0" chnl="0" />
<char id="79" x="100" y="18" width="13" height="14" xoffset="0" yoffset="3" xadvance="13" page="0" chnl="0" />
<char id="71" x="113" y="18" width="13" height="14" xoffset="0" yoffset="3" xadvance="13" page="0" chnl="0" />
<char id="67" x="0" y="33" width="12" height="14" xoffset="0" yoffset="3" xadvance="12" page="0" chnl="0" />
<char id="57" x="12" y="33" width="10" height="14" xoffset="1" yoffset="3" xadvance="11" page="0" chnl="0" />
<char id="56" x="22" y="33" width="10" height="14" xoffset="1" yoffset="3" xadvance="11" page="0" chnl="0" />
<char id="54" x="32" y="33" width="10" height="14" xoffset="1" yoffset="3" xadvance="11" page="0" chnl="0" />
<char id="53" x="42" y="33" width="9" height="14" xoffset="1" yoffset="3" xadvance="11" page="0" chnl="0" />
<char id="51" x="51" y="33" width="9" height="14" xoffset="1" yoffset="3" xadvance="11" page="0" chnl="0" />
<char id="48" x="60" y="33" width="10" height="14" xoffset="1" yoffset="3" xadvance="11" page="0" chnl="0" />
<char id="38" x="70" y="33" width="12" height="14" xoffset="1" yoffset="3" xadvance="13" page="0" chnl="0" />
<char id="37" x="82" y="33" width="16" height="14" xoffset="0" yoffset="3" xadvance="16" page="0" chnl="0" />
<char id="116" x="98" y="33" width="7" height="13" xoffset="0" yoffset="3" xadvance="7" page="0" chnl="0" />
<char id="90" x="105" y="33" width="12" height="13" xoffset="0" yoffset="3" xadvance="11" page="0" chnl="0" />
<char id="89" x="0" y="47" width="11" height="13" xoffset="0" yoffset="3" xadvance="10" page="0" chnl="0" />
<char id="88" x="11" y="47" width="12" height="13" xoffset="0" yoffset="3" xadvance="11" page="0" chnl="0" />
<char id="87" x="23" y="47" width="17" height="13" xoffset="0" yoffset="3" xadvance="16" page="0" chnl="0" />
<char id="86" x="40" y="47" width="12" height="13" xoffset="0" yoffset="3" xadvance="11" page="0" chnl="0" />
<char id="84" x="52" y="47" width="12" height="13" xoffset="-1" yoffset="3" xadvance="10" page="0" chnl="0" />
<char id="82" x="64" y="47" width="11" height="13" xoffset="1" yoffset="3" xadvance="12" page="0" chnl="0" />
<char id="80" x="75" y="47" width="10" height="13" xoffset="1" yoffset="3" xadvance="10" page="0" chnl="0" />
<char id="78" x="85" y="47" width="11" height="13" xoffset="1" yoffset="3" xadvance="12" page="0" chnl="0" />
<char id="77" x="96" y="47" width="13" height="13" xoffset="1" yoffset="3" xadvance="14" page="0" chnl="0" />
<char id="76" x="109" y="47" width="9" height="13" xoffset="1" yoffset="3" xadvance="9" page="0" chnl="0" />
<char id="75" x="0" y="60" width="11" height="13" xoffset="1" yoffset="3" xadvance="11" page="0" chnl="0" />
<char id="73" x="11" y="60" width="4" height="13" xoffset="1" yoffset="3" xadvance="5" page="0" chnl="0" />
<char id="72" x="15" y="60" width="11" height="13" xoffset="1" yoffset="3" xadvance="13" page="0" chnl="0" />
<char id="70" x="26" y="60" width="9" height="13" xoffset="1" yoffset="3" xadvance="10" page="0" chnl="0" />
<char id="69" x="35" y="60" width="10" height="13" xoffset="1" yoffset="3" xadvance="11" page="0" chnl="0" />
<char id="68" x="45" y="60" width="12" height="13" xoffset="1" yoffset="3" xadvance="13" page="0" chnl="0" />
<char id="66" x="57" y="60" width="10" height="13" xoffset="1" yoffset="3" xadvance="11" page="0" chnl="0" />
<char id="65" x="67" y="60" width="12" height="13" xoffset="0" yoffset="3" xadvance="11" page="0" chnl="0" />
<char id="63" x="79" y="60" width="8" height="13" xoffset="1" yoffset="3" xadvance="9" page="0" chnl="0" />
<char id="55" x="87" y="60" width="9" height="13" xoffset="1" yoffset="3" xadvance="11" page="0" chnl="0" />
<char id="52" x="96" y="60" width="11" height="13" xoffset="0" yoffset="3" xadvance="11" page="0" chnl="0" />
<char id="50" x="107" y="60" width="9" height="13" xoffset="1" yoffset="3" xadvance="11" page="0" chnl="0" />
<char id="49" x="116" y="60" width="9" height="13" xoffset="1" yoffset="3" xadvance="11" page="0" chnl="0" />
<char id="35" x="0" y="73" width="13" height="13" xoffset="1" yoffset="3" xadvance="14" page="0" chnl="0" />
<char id="33" x="13" y="73" width="4" height="13" xoffset="2" yoffset="3" xadvance="7" page="0" chnl="0" />
<char id="59" x="17" y="73" width="4" height="12" xoffset="1" yoffset="6" xadvance="6" page="0" chnl="0" />
<char id="43" x="21" y="73" width="12" height="12" xoffset="1" yoffset="4" xadvance="14" page="0" chnl="0" />
<char id="117" x="33" y="73" width="9" height="11" xoffset="1" yoffset="6" xadvance="11" page="0" chnl="0" />
<char id="115" x="42" y="73" width="9" height="11" xoffset="0" yoffset="6" xadvance="9" page="0" chnl="0" />
<char id="111" x="51" y="73" width="10" height="11" xoffset="0" yoffset="6" xadvance="10" page="0" chnl="0" />
<char id="101" x="61" y="73" width="11" height="11" xoffset="0" yoffset="6" xadvance="10" page="0" chnl="0" />
<char id="99" x="72" y="73" width="9" height="11" xoffset="0" yoffset="6" xadvance="9" page="0" chnl="0" />
<char id="97" x="81" y="73" width="10" height="11" xoffset="0" yoffset="6" xadvance="10" page="0" chnl="0" />
<char id="62" x="91" y="73" width="12" height="11" xoffset="1" yoffset="5" xadvance="14" page="0" chnl="0" />
<char id="60" x="103" y="73" width="12" height="11" xoffset="1" yoffset="5" xadvance="14" page="0" chnl="0" />
<char id="122" x="115" y="73" width="9" height="10" xoffset="0" yoffset="6" xadvance="9" page="0" chnl="0" />
<char id="120" x="0" y="86" width="10" height="10" xoffset="0" yoffset="6" xadvance="10" page="0" chnl="0" />
<char id="119" x="10" y="86" width="14" height="10" xoffset="0" yoffset="6" xadvance="14" page="0" chnl="0" />
<char id="118" x="24" y="86" width="10" height="10" xoffset="0" yoffset="6" xadvance="10" page="0" chnl="0" />
<char id="114" x="34" y="86" width="7" height="10" xoffset="1" yoffset="6" xadvance="7" page="0" chnl="0" />
<char id="110" x="41" y="86" width="9" height="10" xoffset="1" yoffset="6" xadvance="11" page="0" chnl="0" />
<char id="109" x="50" y="86" width="15" height="10" xoffset="1" yoffset="6" xadvance="16" page="0" chnl="0" />
<char id="58" x="65" y="86" width="4" height="10" xoffset="1" yoffset="6" xadvance="6" page="0" chnl="0" />
<char id="42" x="69" y="86" width="9" height="9" xoffset="0" yoffset="3" xadvance="9" page="0" chnl="0" />
<char id="61" x="78" y="86" width="12" height="7" xoffset="1" yoffset="7" xadvance="14" page="0" chnl="0" />
<char id="94" x="90" y="86" width="12" height="6" xoffset="1" yoffset="3" xadvance="14" page="0" chnl="0" />
<char id="39" x="102" y="86" width="3" height="6" xoffset="1" yoffset="3" xadvance="5" page="0" chnl="0" />
<char id="34" x="105" y="86" width="6" height="6" xoffset="1" yoffset="3" xadvance="8" page="0" chnl="0" />
<char id="126" x="111" y="86" width="12" height="5" xoffset="1" yoffset="8" xadvance="14" page="0" chnl="0" />
<char id="96" x="0" y="96" width="5" height="5" xoffset="1" yoffset="2" xadvance="9" page="0" chnl="0" />
<char id="44" x="5" y="96" width="4" height="5" xoffset="1" yoffset="13" xadvance="6" page="0" chnl="0" />
<char id="45" x="9" y="96" width="7" height="4" xoffset="0" yoffset="9" xadvance="6" page="0" chnl="0" />
<char id="95" x="16" y="96" width="11" height="3" xoffset="-1" yoffset="17" xadvance="9" page="0" chnl="0" />
<char id="46" x="27" y="96" width="4" height="3" xoffset="1" yoffset="13" xadvance="6" page="0" chnl="0" />
</chars>
</font>
